…
No clear relation between target values for the same day for the two
countries.

``` r
rearranged_data <- left_join(X_train_raw, y_train, by = "ID") %>% 
  select(DAY_ID, COUNTRY, TARGET) %>%
  pivot_wider(names_from = COUNTRY, values_from = TARGET, values_fill = NA) %>%
  drop_na()

# Display the rearranged table
print(rearranged_data)
```

    ## # A tibble: 643 × 3
    ##    DAY_ID      FR      DE
    ##     <int>   <dbl>   <dbl>
    ##  1    501 -0.113   0.0842
    ##  2    687 -0.181   2.40  
    ##  3    720  0.124  -0.260 
    ##  4    467  0.932   0.202 
    ##  5    144  0.193  -0.178 
    ##  6     83  0.0762 -0.714 
    ##  7    307  0       0.111 
    ##  8    277 -0.390  -0.148 
    ##  9    116 -0.138  -0.133 
    ## 10    406  0.123   0.196 
    ## # ℹ 633 more rows
…
